{
    "name": "ASD.Colony.Input",
    "references": [
        "GUID:f3c63ae2aac07764c8ffc76c03e63959",
        "GUID:888159c0363bf2149a277f967bf13643",
        "GUID:f04f69e516a6738459d93b4fd489775b"
    ],
    "includePlatforms": [],
    "excludePlatforms": [],
    "allowUnsafeCode": false,
    "overrideReferences": false,
    "precompiledReferences": [],
    "autoReferenced": true,
    "defineConstraints": [],
    "versionDefines": [],
    "noEngineReferences": false
}